{
	"info": {
		"_postman_id": "7bb89e48-50a1-4b89-8584-d0a187dfed21",
		"name": "E2E",
		"schema": "https://schema.getpostman.com/json/collection/v2.1.0/collection.json",
		"_exporter_id": "29717073"
	},
	"item": [
		{
			"name": "Login",
			"event": [
				{
					"listen": "test",
					"script": {
						"exec": [
							"let responseData = JSON.parse(responseBody);\r",
							"console.log(responseData);\r",
							"pm.environment.set('JWT', responseData.body.token.token);\r",
							"pm.test(\"USUARIO LOGUEADO - OK\");"
						],
						"type": "text/javascript"
					}
				},
				{
					"listen": "prerequest",
					"script": {
						"exec": [
							""
						],
						"type": "text/javascript"
					}
				}
			],
			"request": {
				"method": "POST",
				"header": [],
				"body": {
					"mode": "raw",
					"raw": "{\r\n    \"user\": \"{{USER}}\",\r\n    \"password\": \"{{PASS}}\"\r\n}",
					"options": {
						"raw": {
							"language": "json"
						}
					}
				},
				"url": {
					"raw": "{{URL}}/session/login",
					"host": [
						"{{URL}}"
					],
					"path": [
						"session",
						"login"
					]
				}
			},
			"response": []
		},
		{
			"name": "Cambio Contraseña",
			"event": [
				{
					"listen": "test",
					"script": {
						"exec": [
							"let responseData = JSON.parse(responseBody);\r",
							"console.log(responseData);\r",
							"pm.test(\"LA CONTRASEÑA SE HA ACTUALIZADO - OK\", function () { \r",
							"     pm.expect(responseData.message).to.eql(\"La contraseña ha sido actualizada correctamente\");\r",
							"});\r",
							"\r",
							""
						],
						"type": "text/javascript"
					}
				},
				{
					"listen": "prerequest",
					"script": {
						"exec": [
							""
						],
						"type": "text/javascript"
					}
				}
			],
			"request": {
				"auth": {
					"type": "bearer",
					"bearer": [
						{
							"key": "token",
							"value": "{{JWT}}",
							"type": "string"
						}
					]
				},
				"method": "POST",
				"header": [],
				"body": {
					"mode": "raw",
					"raw": "{\r\n    \"Email\": \"{{EMAIL}}\",\r\n    \"NewPass\": \"{{NEWPASS}}\"\r\n}",
					"options": {
						"raw": {
							"language": "json"
						}
					}
				},
				"url": {
					"raw": "{{URL}}/perfil/pass",
					"host": [
						"{{URL}}"
					],
					"path": [
						"perfil",
						"pass"
					]
				}
			},
			"response": []
		},
		{
			"name": "Login Nuevo Pass",
			"event": [
				{
					"listen": "test",
					"script": {
						"exec": [
							"let responseData = JSON.parse(responseBody);\r",
							"console.log(responseData);\r",
							"pm.environment.set('JWT', responseData.body.token.token);\r",
							"pm.test(\"USUARIO LOGUEADO - OK\");"
						],
						"type": "text/javascript"
					}
				}
			],
			"request": {
				"method": "POST",
				"header": [],
				"body": {
					"mode": "raw",
					"raw": "{\r\n    \"user\": \"{{USER}}\",\r\n    \"password\": \"{{NEWPASS}}\"\r\n}",
					"options": {
						"raw": {
							"language": "json"
						}
					}
				},
				"url": {
					"raw": "{{URL}}/session/login",
					"host": [
						"{{URL}}"
					],
					"path": [
						"session",
						"login"
					]
				}
			},
			"response": []
		},
		{
			"name": "Reestablecer 1º pass",
			"event": [
				{
					"listen": "test",
					"script": {
						"exec": [
							"let responseData = JSON.parse(responseBody);\r",
							"console.log(responseData);\r",
							"pm.test(\"LA CONTRASEÑA SE HA ACTUALIZADO - OK\", function () { \r",
							"     pm.expect(responseData.message).to.eql(\"La contraseña ha sido actualizada correctamente\");\r",
							"});\r",
							"\r",
							""
						],
						"type": "text/javascript"
					}
				}
			],
			"request": {
				"auth": {
					"type": "bearer",
					"bearer": [
						{
							"key": "token",
							"value": "{{JWT}}",
							"type": "string"
						}
					]
				},
				"method": "POST",
				"header": [],
				"body": {
					"mode": "raw",
					"raw": "{\r\n    \"Email\": \"{{EMAIL}}\",\r\n    \"NewPass\": \"{{PASS}}\"\r\n}",
					"options": {
						"raw": {
							"language": "json"
						}
					}
				},
				"url": {
					"raw": "{{URL}}/perfil/pass",
					"host": [
						"{{URL}}"
					],
					"path": [
						"perfil",
						"pass"
					]
				}
			},
			"response": []
		},
		{
			"name": "Vaciar carrito",
			"event": [
				{
					"listen": "test",
					"script": {
						"exec": [
							"let responseData = JSON.parse(responseBody);\r",
							"console.log(responseData);\r",
							"if(responseData.status == 1){\r",
							"    pm.test(\"CARRITO VACIO - OK\", function () { \r",
							"     pm.expect(responseData.status).to.eql(1);\r",
							"});\r",
							"}else{\r",
							"    pm.test(\"CARRITO VACIADO - OK\", function () { \r",
							"     pm.expect(responseData.status).to.eql(0);\r",
							"});\r",
							"}\r",
							""
						],
						"type": "text/javascript"
					}
				}
			],
			"request": {
				"auth": {
					"type": "bearer",
					"bearer": [
						{
							"key": "token",
							"value": "{{JWT}}",
							"type": "string"
						}
					]
				},
				"method": "PUT",
				"header": [],
				"url": {
					"raw": "{{URL}}/cart/delete",
					"host": [
						"{{URL}}"
					],
					"path": [
						"cart",
						"delete"
					]
				}
			},
			"response": []
		},
		{
			"name": "QR Seleccion Random",
			"event": [
				{
					"listen": "test",
					"script": {
						"exec": [
							""
						],
						"type": "text/javascript"
					}
				},
				{
					"listen": "prerequest",
					"script": {
						"exec": [
							"var currentEnvironment = pm.environment.name;\r",
							"\r",
							"if(currentEnvironment === 'DEV'){\r",
							"    var qrValues = [\r",
							"    \"https://cg-qr.com?rR09zVgb7Rjaer_vqUqc-w==\",\r",
							"    \"https://cg-qr.com?kv33bVPPoKKFDjumv6iU1Q==\",\r",
							"    \"https://cg-qr.com?VeFS1TlesYfjmbubneex4A==\"\r",
							"    ];\r",
							"}else{\r",
							"    var qrValues = [\r",
							"    \"https://cg-qr.com?uzpXLaQc0oHffY4ZgEeKbQ==\",\r",
							"    \"https://cg-qr.com?m5X6WtVVQyQ24jerMa9OEA==\",\r",
							"    \"https://cg-qr.com?r7vQz9ElxLxnnVywExFByA==\",\r",
							"    \"https://cg-qr.com?lg9whjgh6UcMe1i24zwI2A==\"\r",
							"    ];\r",
							"}\r",
							"\r",
							"\r",
							"\r",
							"var randomIndex = Math.floor(Math.random() * qrValues.length);\r",
							"var randomQR = qrValues[randomIndex];\r",
							"pm.environment.set('qrCorpo', randomQR);\r",
							"\r",
							"var randomNumber = Math.floor(Math.random() * 6) + 1;\r",
							"pm.environment.set('cantidadUni', randomNumber);"
						],
						"type": "text/javascript"
					}
				}
			],
			"request": {
				"auth": {
					"type": "bearer",
					"bearer": [
						{
							"key": "token",
							"value": "{{JWT}}",
							"type": "string"
						}
					]
				},
				"method": "GET",
				"header": [],
				"url": {
					"raw": "{{URL}}/qr?value={{qrCorpo}}",
					"host": [
						"{{URL}}"
					],
					"path": [
						"qr"
					],
					"query": [
						{
							"key": "value",
							"value": "{{qrCorpo}}"
						}
					]
				}
			},
			"response": []
		},
		{
			"name": "QR Seleccion",
			"event": [
				{
					"listen": "test",
					"script": {
						"exec": [
							"let responseData = JSON.parse(responseBody);\r",
							"console.log(responseData);\r",
							"pm.environment.set('idProducto', responseData.body.id);\r",
							"pm.test(\"PRODUCTO SELECCIONADO - OK\", function () { \r",
							"     pm.expect(responseData.status).to.eql(0);\r",
							"});"
						],
						"type": "text/javascript"
					}
				}
			],
			"request": {
				"auth": {
					"type": "bearer",
					"bearer": [
						{
							"key": "token",
							"value": "{{JWT}}",
							"type": "string"
						}
					]
				},
				"method": "GET",
				"header": [],
				"url": {
					"raw": "{{URL}}/qr?value={{qrCorpo}}",
					"host": [
						"{{URL}}"
					],
					"path": [
						"qr"
					],
					"query": [
						{
							"key": "value",
							"value": "{{qrCorpo}}"
						}
					]
				}
			},
			"response": []
		},
		{
			"name": "Agregar item a Carrito",
			"event": [
				{
					"listen": "test",
					"script": {
						"exec": [
							"let responseData = JSON.parse(responseBody);\r",
							"console.log(responseData);\r",
							"pm.test(\"PRODUCTO AGREGADO AL CARRITO - OK\", function () { \r",
							"     pm.expect(responseData.status).to.eql(0);\r",
							"});"
						],
						"type": "text/javascript"
					}
				}
			],
			"request": {
				"auth": {
					"type": "bearer",
					"bearer": [
						{
							"key": "token",
							"value": "{{JWT}}",
							"type": "string"
						}
					]
				},
				"method": "POST",
				"header": [],
				"body": {
					"mode": "raw",
					"raw": "{\r\n    \"IdVendingExpendedoraSeleccion\": \"{{idProducto}}\",\r\n    \"Count\": {{cantidadUni}}\r\n}",
					"options": {
						"raw": {
							"language": "json"
						}
					}
				},
				"url": {
					"raw": "{{URL}}/cart/item",
					"host": [
						"{{URL}}"
					],
					"path": [
						"cart",
						"item"
					]
				}
			},
			"response": []
		},
		{
			"name": "Ver carrito actual activo",
			"event": [
				{
					"listen": "test",
					"script": {
						"exec": [
							"let responseData = JSON.parse(responseBody);\r",
							"console.log(responseData);\r",
							"pm.test(\"CARRITO ACTUAL - OK\", function () { \r",
							"     pm.expect(responseData.status).to.eql(0);\r",
							"});"
						],
						"type": "text/javascript"
					}
				}
			],
			"request": {
				"auth": {
					"type": "bearer",
					"bearer": [
						{
							"key": "token",
							"value": "{{JWT}}",
							"type": "string"
						}
					]
				},
				"method": "GET",
				"header": [],
				"url": {
					"raw": "{{URL}}/cart/items",
					"host": [
						"{{URL}}"
					],
					"path": [
						"cart",
						"items"
					]
				}
			},
			"response": []
		},
		{
			"name": "Pagar Carrito",
			"event": [
				{
					"listen": "test",
					"script": {
						"exec": [
							"let responseData = JSON.parse(responseBody);\r",
							"console.log(responseData);\r",
							"pm.test(\"COMPRA FINALIZADA - OK\", function () { \r",
							"     pm.expect(responseData.status).to.eql(0);\r",
							"});"
						],
						"type": "text/javascript"
					}
				}
			],
			"request": {
				"auth": {
					"type": "bearer",
					"bearer": [
						{
							"key": "token",
							"value": "{{JWT}}",
							"type": "string"
						}
					]
				},
				"method": "POST",
				"header": [],
				"body": {
					"mode": "raw",
					"raw": "",
					"options": {
						"raw": {
							"language": "json"
						}
					}
				},
				"url": {
					"raw": "{{URL}}/cart/checkout",
					"host": [
						"{{URL}}"
					],
					"path": [
						"cart",
						"checkout"
					]
				}
			},
			"response": []
		}
	]
}